{
  "data_id": "",
  "data_type": "T1WI",
  "fixed": "false",
  "dir_name": "",
  "title": "",
  "subject": [],
  "creator": [],
  "contact_person": [],
  "uploader": [],
  "contributor": [],
  "publisher": "",
  "shared_date": "",
  "supporting_institution": "",
  "fund": [],
  "date": [],
  "content_language": "",
  "size": [],
  "format": [],
  "version": "",
  "rights": [],
  "resource_type": [],
  "related_content": [],
  "description": [],
  "experiment_type": "",
  "experiment_date": "",
  "donor_info": [],
  "coordinate_space": "",
  "plane_of_section": "",
  "observed_region": "",
  "data_organization": "",
  "brain_states": "",
  "behaviors": "",
  "Field_strength": 0,
  "MRI_sequence": [
    {
      "type": "",
      "method": "",
      "dimension": ""
    }
  ],
  "sample_state": "",
  "equipment": [
    {
      "name": "",
      "manufacturer": "",
      "location": "",
      "software": ""
    }
  ],
  "TR": 0,
  "eTE": 0,
  "TI": 0,
  "segmentTR": 0,
  "acquisition_matrix": [
    {
      "x": 0,
      "y": 0,
      "z": 0
    }
  ],
  "FOV": [
    {
      "x": 0,
      "y": 0,
      "z": 0
    }
  ],
  "number_of_segment": 0,
  "number_of_averages": 0,
  "flip_angle": 0,
  "number_of_receiver_ch": 0,
  "number_of_transmitter_ch": 0,
  "type_of_receiver_coil": "",
  "kspace_trajectory": "",
  "reconstruction_method": "",
  "accerelation_factor": 0,
  "partial_fourie": [
    {
      "x": 0,
      "y": 0,
      "z": 0
    }
  ],
  "acquisition_matrix_in_kspace": [
    {
      "x": 0,
      "y": 0,
      "z": 0
    }
  ],
  "total_scan_time": "",
  "additional_processing": "",
  "fat_saturation": "",
  "scan_orientation": "",
  "acquisition_time": ""
}