{
  "data_id": "",
  "data_type": "Tracer",
  "dir_name": "",
  "title": "",
  "subject": [],
  "creator": [],
  "contact_person": [],
  "uploader": [],
  "contributor": [],
  "publisher": "",
  "shared_date": "",
  "supporting_institution": "",
  "fund": [],
  "date": [],
  "content_language": "",
  "size": [],
  "format": [],
  "version": "",
  "rights": [],
  "resource_type": [],
  "related_content": [],
  "description": [],
  "experiment_type": "",
  "experiment_date": "",
  "donor_info": [],
  "coordinate_space": "",
  "plane_of_section": "",
  "observed_region": "",
  "data_organization": "",
  "brain_states": "",
  "injection": [],
  "number_of_sections": 0,
  "sectioning": []
}