{
  "data_id": "",
  "data_type": "Document",
  "dir_name": "",
  "title": "",
  "subject": [],
  "creator": [],
  "contact_person": [],
  "uploader": [],
  "contributor": [],
  "publisher": "",
  "shared_date": "",
  "supporting_institution": "",
  "fund": [],
  "date": [],
  "content_language": "",
  "size": [],
  "format": [],
  "version": "",
  "rights": [],
  "resource_type": [],
  "related_content": [],
  "description": []
}